{
    "name": "BCom",
    "include": [
	"bcom-curve.h"
    ],
    "glib-include": [
	"bcom-glib-curve.h"
    ],
    "flag": [
	{
	    "name": "status",
	    "value": [
		"charging",
		"discharging",
		"cell-ovp",
		"cell-uvp",
		"charging-otp",
		"charging-utp",
		"discharging-otp",
		"discharging-utp",
		"charging-ocp",
		"discharging-ocp",
		"manual",
		"balancing",
		"dirty-bat-conf",
		"dirty-prot-conf"
	    ]
	},
	{
	    "name": "query",
	    "value": [
		"timestamp",
		"voltage",
		"current",
		"status",
		"balancing",
		"temperature",
		"caplimit",
		"afe",
		"prot-conf",
		"bat-conf",
		"board-conf"
	    ]
	}
    ],
    "enum": [
	{
	    "name": "bal-mode",
	    "value": [
		"off",
		"manual",
		"auto"
	    ]
	}
    ],
    "struct": [
	{
	    "name": "curve",
	    "extern": true
	},
	{
	    "name": "prot-conf",
	    "field": [
		{
		    "name": "version",
		    "type": "u16",
		    "unit": "1"
		},
		{
		    "name": "cell-ovp",
		    "type": "u16",
		    "unit": "V",
		    "scale": "0.001"
		},
		{
		    "name": "cell-uvp",
		    "type": "u16",
		    "unit": "V",
		    "scale": "0.001"
		},
		{
		    "name": "cell-bal-min",
		    "type": "u16",
		    "unit": "V",
		    "scale": "0.001"
		},
		{
		    "name": "cell-bal-diff",
		    "type": "u16",
		    "unit": "V",
		    "scale": "0.001"
		},
		{
		    "name": "chg-ocp-hard",
		    "type": "u16",
		    "unit": "A",
		    "scale": "0.1"
		},
		{
		    "name": "chg-ocp-soft",
		    "type": "u16",
		    "unit": "A",
		    "scale": "0.1"
		},
		{
		    "name": "chg-ocp-soft-d",
		    "type": "u16",
		    "unit": "s",
		    "scale": "0.001"
		},
		{
		    "name": "dsg-ocp-hard",
		    "type": "u16",
		    "unit": "A",
		    "scale": "0.1"
		},
		{
		    "name": "dsg-ocp-soft",
		    "type": "u16",
		    "unit": "A",
		    "scale": "0.1"
		},
		{
		    "name": "dsg-ocp-soft-d",
		    "type": "u16",
		    "unit": "s",
		    "scale": "0.001"
		},
		{
		    "name": "chg-otp",
		    "type": "i8",
		    "unit": "C"
		},
		{
		    "name": "chg-utp",
		    "type": "i8",
		    "unit": "C"
		},
		{
		    "name": "dsg-otp",
		    "type": "i8",
		    "unit": "C"
		},
		{
		    "name": "dsg-utp",
		    "type": "i8",
		    "unit": "C"
		}
	    ]
	},
	{
	    "name": "bat-conf",
	    "field": [
		{
		    "name": "version",
		    "type": "u16",
		    "unit": "1"
		},
		{
		    "name": "nominal-capacity",
		    "type": "u16",
		    "unit": "Ah",
		    "scale": "0.01"
		},
		{
		    "name": "nominal-voltage",
		    "type": "u16",
		    "unit": "V",
		    "scale": "0.1"
		},
		{
		    "name": "cell-voltage-level",
		    "type": "curve"
		}
	    ]
	}
    ],
    "message": [
	{
	    "name": "ping",
	    "arg": {
		"name": "ack",
		"type": "u32"
	    }
	},
	{
	    "name": "message",
	    "arg": {
		"name": "message",
		"type": "c",
		"length": "@strlen"
	    }
	},
	{
	    "name": "voltage",
	    "arg": [
		{
		    "name": "count",
		    "type": "u8"
		},
		{
		    "name": "cells",
		    "type": "i16",
		    "length": "count"
		}
	    ]
	},
	{
	    "name": "current",
	    "arg": {
		"name": "current",
		"type": "i32"
	    }
	},
	{
	    "name": "status",
	    "arg": {
		"name": "status",
		"type": "u32"
	    }
	},
	{
	    "name": "query",
	    "arg": {
		"name": "flags",
		"type": "u32"
	    }
	},
	{
	    "name": "bat-conf",
	    "arg": [
		{
		    "name": "conf",
		    "type": "bat-conf"
		}
	    ]
	},
	{
	    "name": "prot-conf",
	    "arg": [
		{
		    "name": "conf",
		    "type": "prot-conf"
		}
	    ]
	}
    ]
}
